{
    "Name": "Goblin",
    "Description":"The Faerie Queen exiled the goblins long ago, for a crime only she remembers. As part of their exile, she stripped them of their immortality and doomed them to live out their days in the mortal world. Goblins have since infiltrated human societies, making their homes in rubbish heaps and sewers where, to everyone’s surprise, they seem quite happy doing the jobs no one else is at all interested in performing. Picking through trash for choice treasures or trawling the fetid waters oozing through the subterranean tunnels for a bit of gold or a dropped coin is all goblins need to keep them from making trouble for their neighbors.",
    "Sourcebook": "Shadow of the Demon Lord Player Handbook",
    "Levels":
    {
        "Level One":
        {
            "Attributes" : "Strength 8, Agility 12, Intellect 10, Will 9.",
            "Perception": "equals your Intellect score +1.",
			"Defense": "equals your Agility score.",
			"Health": "equals your strength score.",
			"Healing Rate": "equals one-quarter your Health, round down.",
			"Size": "1/2.",
			"Speed": "10.",
            "Languages and Professions": "You speak the Common Tongue and Elvish.",
			"immune": "damage from disease; charmed, diseased",
			"Iron Vulnerability": "You are impaired while in contact with iron.",
			"Shadowsight": "You see into areas obscured by shadows as if those areas were lit.",
			"Sneaky": "When you roll to become hidden or move silently, you make the Agility challenge roll with 1 boon."
        },
        "Level Four":
        {
            "Characteristics": "Health +4, You either learn one spell or gain Spring Away.",
            "Spring Away": "When a creature you can see gets a failure on an attack roll against your Defense or Agility, you can use a triggered action to retreat."
        }
    },
    "Contributor": "Bart Falken"
}