{
    "Name": "Dagger or knife",
    "Description": "Basic Melee Weapon",
    "Sourcebook": "Shadow of the Demon Lord",
    "Attributes":
    {
        "Value": "5 cp",
        "Availability": "C",
        "Damage": "1d3",
        "Hands": "Off",
        "Properties": "Finesse, thrown, range (short)"
    },
    "Contributor": "Tim Falken"
}