{
    "Name": "Hammer or hatchet",
    "Description": "Basic Melee Weapon",
    "Sourcebook": "Shadow of the Demon Lord",
    "Attributes":
    {
        "Value": "1 ss",
        "Availability": "C",
        "Damage": "1d3",
        "Hands": "Off",
        "Properties": "Thrown, range (short)"
    },
    "Contributor": "Tim Falken"
}