{
    "Name": "Destroy Magic",
    "Tradition": "Arcana",
    "Level": 3,
    "Sourcebook": "Shadow of the Demon Lord",
    "Description": "All effects created by rank 3 or lower spells that affect anything in the area end immediately.",
    "Attributes":
    {
        "Area": "A cube, 5 yards on a side, originating from a point within medium range."
    },
    "Contributor": "Tim Falken"
}